
('0.5 ILI ', SpearmanrResult(correlation=0.6641587255712165, pvalue=0.00021567390274605247))
('0.55 ILI ', SpearmanrResult(correlation=0.7818057912748716, pvalue=2.4019922158479197e-06))
('0.55 ILI ', SpearmanrResult(correlation=0.7818057912748716, pvalue=2.4019922158479197e-06))
('0.6 ILI ', SpearmanrResult(correlation=0.7663876798740672, pvalue=4.997610608387862e-06))
('0.65 ILI ', SpearmanrResult(correlation=0.8636908952828009, pvalue=1.3311028613237477e-08))
('0.7 ILI ', SpearmanrResult(correlation=0.8598379778441162, pvalue=1.8215627483691725e-08))
('0.75 ILI ', SpearmanrResult(correlation=0.8833326687823463, pvalue=2.286182764077244e-09))
('0.8 ILI ', SpearmanrResult(correlation=0.8622368881051401, pvalue=1.5000351425749393e-08))
('0.85 ILI ', SpearmanrResult(correlation=0.9303693891080447, pvalue=5.989418871022701e-12))
('0.9 ILI ', SpearmanrResult(correlation=0.7684949125299598, pvalue=4.5362844596557786e-06))
('0.95 ILI ', SpearmanrResult(correlation=0.731202437274857, pvalue=2.2028983652403762e-05))
