week,w_ili
week_44,8
week_45,53
week_46,110
week_47,75
week_48,68
week_49,61
week_50,78
week_51,75
week_52,72
week_01,73
week_02,98
week_03,84
week_04,72
week_05,84
week_06,84
week_07,69
week_08,59
week_09,47
week_10,38
week_11,32
week_12,39
week_13,44
week_14,53
week_15,50
week_16,25
week_17,35
