week,watson_ili
week_44,0
week_45,6
week_46,5
week_47,5
week_48,3
week_49,7
week_50,6
week_51,7
week_52,4
week_01,5
week_02,6
week_03,12
week_04,5
week_05,9
week_06,7
week_07,9
week_08,5
week_09,5
week_10,2
week_11,3
week_12,1
week_13,4
week_14,3
week_15,6
week_16,2
week_17,7
