week,watson_ili
week_44,1
week_45,24
week_46,22
week_47,27
week_48,11
week_49,15
week_50,17
week_51,10
week_52,15
week_01,18
week_02,11
week_03,21
week_04,19
week_05,17
week_06,17
week_07,17
week_08,11
week_09,16
week_10,7
week_11,4
week_12,4
week_13,7
week_14,12
week_15,11
week_16,4
week_17,12
