week,watson_ili
week_44,7
week_45,46
week_46,80
week_47,64
week_48,55
week_49,50
week_50,61
week_51,49
week_52,53
week_01,62
week_02,77
week_03,67
week_04,63
week_05,62
week_06,61
week_07,54
week_08,52
week_09,42
week_10,28
week_11,19
week_12,20
week_13,33
week_14,42
week_15,43
week_16,19
week_17,27
