week,watson_ili
week_44,8
week_45,52
week_46,106
week_47,71
week_48,65
week_49,59
week_50,76
week_51,69
week_52,65
week_01,73
week_02,95
week_03,80
week_04,71
week_05,75
week_06,80
week_07,65
week_08,57
week_09,45
week_10,34
week_11,29
week_12,34
week_13,43
week_14,49
week_15,47
week_16,22
week_17,35
